%YAML 1.1
%TAG !u! tag:unity3d.com,2011:
--- !u!162 &1
EditorUserSettings:
  m_ObjectHideFlags: 0
  serializedVersion: 4
  m_ConfigSettings:
    RecentlyUsedScenePath-0:
      value: 22424703114646680e0b0227036c711501572b292926237e38271427fb
      flags: 0
    RecentlyUsedScenePath-1:
      value: 224247031146466b011b0b2b1e30103c13160807233c2f3f23663e3cf0e57b1dfae63bf9eb3f2c731a03ff2f1132047fda0b070fe54b423d234eb04e38f1160110d71dc15afe1619dc1c0e878308dfeac1cf
      flags: 0
    RecentlyUsedScenePath-2:
      value: 224247031146466b011b0b2b1e30103c13160807233c2f3f2366303ce6f5383df1a81ee8e93e2c731c1aee311432042cbd220805f22903051507f3095fea1e1a05dc
      flags: 0
    RecentlyUsedScenePath-3:
      value: 22424703114646680e0b0227036c6c111b07142f1f2b233e2867083debf42d
      flags: 0
    vcSharedLogLevel:
      value: 0d5e400f0650
      flags: 0
  m_VCAutomaticAdd: 1
  m_VCDebugCom: 0
  m_VCDebugCmd: 0
  m_VCDebugOut: 0
  m_SemanticMergeMode: 2
  m_VCShowFailedCheckout: 1
  m_VCOverwriteFailedCheckoutAssets: 1
  m_VCProjectOverlayIcons: 1
  m_VCHierarchyOverlayIcons: 1
  m_VCOtherOverlayIcons: 1
  m_VCAllowAsyncUpdate: 1
